03/03/17 17:39

Polynomial Kernel SVM (6 points):
Score += 6

Radial Basis Kernel SVM (6 points):
Score += 6

Code Quality (3 points):
Score += 3

Total score: 15/15 = 100.0%

Excellent!


Comments:
	But what were the best scores?

--------------------------------------------------------------------------------

